…
```r
out$data
#> Error in eval(expr, envir, enclos): object 'out' not found
```

## Search Orcid

Get a list of names and Orcid IDs matching a name query


```r
orcid(query = "carl boettiger")
#> # A tibble: 100 x 3
#>    `orcid-identifier.uri`                `orcid-identifi… `orcid-identifi…
#>  * <chr>                                 <chr>            <chr>           
#>  1 https://orcid.org/0000-0002-1642-628X 0000-0002-1642-… orcid.org       
#>  2 https://orcid.org/0000-0002-3554-5196 0000-0002-3554-… orcid.org       
#>  3 https://orcid.org/0000-0002-5951-4503 0000-0002-5951-… orcid.org       
#>  4 https://orcid.org/0000-0002-7462-1956 0000-0002-7462-… orcid.org       
#>  5 https://orcid.org/0000-0003-1021-5374 0000-0003-1021-… orcid.org       
#>  6 https://orcid.org/0000-0002-8885-5438 0000-0002-8885-… orcid.org       
#>  7 https://orcid.org/0000-0002-4791-6222 0000-0002-4791-… orcid.org       
#>  8 https://orcid.org/0000-0002-2171-9124 0000-0002-2171-… orcid.org       
#>  9 https://orcid.org/0000-0002-2683-5888 0000-0002-2683-… orcid.org       
#> 10 https://orcid.org/0000-0002-3141-3057 0000-0002-3141-… orcid.org       
#> # ... with 90 more rows
```

You can string together many search terms


```r
orcid(query = "johnson cardiology houston")
#> # A tibble: 100 x 3
#>    `orcid-identifier.uri`                `orcid-identifi… `orcid-identifi…
#>  * <chr>                                 <chr>            <chr>           
#>  1 https://orcid.org/0000-0002-0897-2301 0000-0002-0897-… orcid.org       
#>  2 https://orcid.org/0000-0002-4968-6272 0000-0002-4968-… orcid.org       
#>  3 https://orcid.org/0000-0001-9667-1615 0000-0001-9667-… orcid.org       
#>  4 https://orcid.org/0000-0002-9503-6836 0000-0002-9503-… orcid.org       
#>  5 https://orcid.org/0000-0003-0945-6138 0000-0003-0945-… orcid.org       
#>  6 https://orcid.org/0000-0003-2447-553X 0000-0003-2447-… orcid.org       
#>  7 https://orcid.org/0000-0001-7724-5784 0000-0001-7724-… orcid.org       
#>  8 https://orcid.org/0000-0002-5164-6296 0000-0002-5164-… orcid.org       
#>  9 https://orcid.org/0000-0002-5078-9551 0000-0002-5078-… orcid.org       
#> 10 https://orcid.org/0000-0002-9701-0568 0000-0002-9701-… orcid.org       
#> # ... with 90 more rows
```

And use boolean operators


```r
orcid("johnson AND(caltech OR 'California Institute of Technology')")
#> # A tibble: 100 x 3
#>    `orcid-identifier.uri`                `orcid-identifi… `orcid-identifi…
#>  * <chr>                                 <chr>            <chr>           
#>  1 https://orcid.org/0000-0002-0026-2516 0000-0002-0026-… orcid.org       
#>  2 https://orcid.org/0000-0001-6495-9892 0000-0001-6495-… orcid.org       
#>  3 https://orcid.org/0000-0001-5320-7003 0000-0001-5320-… orcid.org       
#>  4 https://orcid.org/0000-0003-0533-6833 0000-0003-0533-… orcid.org       
#>  5 https://orcid.org/0000-0003-0692-4178 0000-0003-0692-… orcid.org       
#>  6 https://orcid.org/0000-0001-9837-9773 0000-0001-9837-… orcid.org       
#>  7 https://orcid.org/0000-0002-1875-7007 0000-0002-1875-… orcid.org       
#>  8 https://orcid.org/0000-0002-4207-6746 0000-0002-4207-… orcid.org       
#>  9 https://orcid.org/0000-0001-9761-1059 0000-0001-9761-… orcid.org       
#> 10 https://orcid.org/0000-0002-7676-5347 0000-0002-7676-… orcid.org       
#> # ... with 90 more rows
```
…
Search specific fields. here, by text type


```r
orcid("text:English")
#> # A tibble: 100 x 3
#>    `orcid-identifier.uri`                `orcid-identifi… `orcid-identifi…
#>  * <chr>                                 <chr>            <chr>           
#>  1 https://orcid.org/0000-0001-8797-7698 0000-0001-8797-… orcid.org       
#>  2 https://orcid.org/0000-0003-4866-655X 0000-0003-4866-… orcid.org       
#>  3 https://orcid.org/0000-0002-1895-9143 0000-0002-1895-… orcid.org       
#>  4 https://orcid.org/0000-0002-6836-1393 0000-0002-6836-… orcid.org       
#>  5 https://orcid.org/0000-0003-3473-9324 0000-0003-3473-… orcid.org       
#>  6 https://orcid.org/0000-0003-4814-3863 0000-0003-4814-… orcid.org       
#>  7 https://orcid.org/0000-0003-2506-8960 0000-0003-2506-… orcid.org       
#>  8 https://orcid.org/0000-0002-6013-1841 0000-0002-6013-… orcid.org       
#>  9 https://orcid.org/0000-0001-7683-6064 0000-0001-7683-… orcid.org       
#> 10 https://orcid.org/0000-0001-7567-2467 0000-0001-7567-… orcid.org       
#> # ... with 90 more rows
```
…
Function is vectorized, search for many DOIs


```r
dois <- c("10.1371/journal.pone.0025995","10.1371/journal.pone.0053712",
       "10.1371/journal.pone.0054608","10.1371/journal.pone.0055937")
res <- orcid_doi(dois = dois, fuzzy = TRUE)
res[[1]]
#> # A tibble: 100 x 3
#>    `orcid-identifier.uri`                `orcid-identifi… `orcid-identifi…
#>  * <chr>                                 <chr>            <chr>           
#>  1 https://orcid.org/0000-0002-0051-973X 0000-0002-0051-… orcid.org       
#>  2 https://orcid.org/0000-0003-4683-9648 0000-0003-4683-… orcid.org       
#>  3 https://orcid.org/0000-0002-5634-6145 0000-0002-5634-… orcid.org       
#>  4 https://orcid.org/0000-0003-1655-9549 0000-0003-1655-… orcid.org       
#>  5 https://orcid.org/0000-0002-2565-951X 0000-0002-2565-… orcid.org       
#>  6 https://orcid.org/0000-0002-7630-7194 0000-0002-7630-… orcid.org       
#>  7 https://orcid.org/0000-0003-3976-0923 0000-0003-3976-… orcid.org       
#>  8 https://orcid.org/0000-0001-9733-2252 0000-0001-9733-… orcid.org       
#>  9 https://orcid.org/0000-0002-3055-3920 0000-0002-3055-… orcid.org       
#> 10 https://orcid.org/0000-0001-5442-6857 0000-0001-5442-… orcid.org       
#> # ... with 90 more rows
```
…
