…
## Search Orcid

Get a list of names and Orcid IDs matching a name query


```r
orcid(query = "carl boettiger")
#> # A tibble: 100 x 3
#>    `orcid-identifier.uri`                `orcid-identifi… `orcid-identifi…
#>  * <chr>                                 <chr>            <chr>           
#>  1 https://orcid.org/0000-0002-1642-628X 0000-0002-1642-… orcid.org       
#>  2 https://orcid.org/0000-0002-3554-5196 0000-0002-3554-… orcid.org       
#>  3 https://orcid.org/0000-0002-5951-4503 0000-0002-5951-… orcid.org       
#>  4 https://orcid.org/0000-0002-7462-1956 0000-0002-7462-… orcid.org       
#>  5 https://orcid.org/0000-0003-1021-5374 0000-0003-1021-… orcid.org       
#>  6 https://orcid.org/0000-0002-8885-5438 0000-0002-8885-… orcid.org       
#>  7 https://orcid.org/0000-0002-4791-6222 0000-0002-4791-… orcid.org       
#>  8 https://orcid.org/0000-0003-2119-4097 0000-0003-2119-… orcid.org       
#>  9 https://orcid.org/0000-0002-3141-3057 0000-0002-3141-… orcid.org       
#> 10 https://orcid.org/0000-0002-2171-9124 0000-0002-2171-… orcid.org       
#> # ... with 90 more rows
```

You can string together many search terms


```r
orcid(query = "johnson cardiology houston")
#> # A tibble: 100 x 3
#>    `orcid-identifier.uri`                `orcid-identifi… `orcid-identifi…
#>  * <chr>                                 <chr>            <chr>           
#>  1 https://orcid.org/0000-0002-0897-2301 0000-0002-0897-… orcid.org       
#>  2 https://orcid.org/0000-0002-5281-4466 0000-0002-5281-… orcid.org       
#>  3 https://orcid.org/0000-0001-8188-0078 0000-0001-8188-… orcid.org       
#>  4 https://orcid.org/0000-0002-4968-6272 0000-0002-4968-… orcid.org       
#>  5 https://orcid.org/0000-0002-1918-5792 0000-0002-1918-… orcid.org       
#>  6 https://orcid.org/0000-0001-9667-1615 0000-0001-9667-… orcid.org       
#>  7 https://orcid.org/0000-0003-0945-6138 0000-0003-0945-… orcid.org       
#>  8 https://orcid.org/0000-0002-9503-6836 0000-0002-9503-… orcid.org       
#>  9 https://orcid.org/0000-0001-5156-0356 0000-0001-5156-… orcid.org       
#> 10 https://orcid.org/0000-0003-2447-553X 0000-0003-2447-… orcid.org       
#> # ... with 90 more rows
```
…
Function is vectorized, search for many DOIs


```r
dois <- c("10.1371/journal.pone.0025995","10.1371/journal.pone.0053712",
       "10.1371/journal.pone.0054608","10.1371/journal.pone.0055937")
res <- orcid_doi(dois = dois, fuzzy = TRUE)
res[[1]]
#> # A tibble: 100 x 3
#>    `orcid-identifier.uri`                `orcid-identifi… `orcid-identifi…
#>  * <chr>                                 <chr>            <chr>           
#>  1 https://orcid.org/0000-0002-0051-973X 0000-0002-0051-… orcid.org       
#>  2 https://orcid.org/0000-0002-5634-6145 0000-0002-5634-… orcid.org       
#>  3 https://orcid.org/0000-0001-8887-5095 0000-0001-8887-… orcid.org       
#>  4 https://orcid.org/0000-0002-3583-1248 0000-0002-3583-… orcid.org       
#>  5 https://orcid.org/0000-0002-6840-2167 0000-0002-6840-… orcid.org       
#>  6 https://orcid.org/0000-0003-4683-9648 0000-0003-4683-… orcid.org       
#>  7 https://orcid.org/0000-0003-1655-9549 0000-0003-1655-… orcid.org       
#>  8 https://orcid.org/0000-0002-3654-8137 0000-0002-3654-… orcid.org       
#>  9 https://orcid.org/0000-0002-3584-9915 0000-0002-3584-… orcid.org       
#> 10 https://orcid.org/0000-0001-9404-7069 0000-0001-9404-… orcid.org       
#> # ... with 90 more rows
```
…
