…
## Search Orcid

Get a list of names and Orcid IDs matching a name query


```r
orcid(query = "carl boettiger")
#> # A tibble: 100 x 3
#>    `orcid-identifier.uri`         `orcid-identifier.p… `orcid-identifier.h…
#>  * <chr>                          <chr>                <chr>               
#>  1 https://orcid.org/0000-0002-1… 0000-0002-1642-628X  orcid.org           
#>  2 https://orcid.org/0000-0002-3… 0000-0002-3554-5196  orcid.org           
#>  3 https://orcid.org/0000-0002-5… 0000-0002-5951-4503  orcid.org           
#>  4 https://orcid.org/0000-0002-7… 0000-0002-7462-1956  orcid.org           
#>  5 https://orcid.org/0000-0003-1… 0000-0003-1021-5374  orcid.org           
#>  6 https://orcid.org/0000-0002-8… 0000-0002-8885-5438  orcid.org           
#>  7 https://orcid.org/0000-0002-4… 0000-0002-4791-6222  orcid.org           
#>  8 https://orcid.org/0000-0002-7… 0000-0002-7790-5102  orcid.org           
#>  9 https://orcid.org/0000-0002-0… 0000-0002-0704-2460  orcid.org           
#> 10 https://orcid.org/0000-0003-2… 0000-0003-2511-367X  orcid.org           
#> # … with 90 more rows
```

You can string together many search terms


```r
orcid(query = "johnson cardiology houston")
#> # A tibble: 100 x 3
#>    `orcid-identifier.uri`         `orcid-identifier.p… `orcid-identifier.h…
#>  * <chr>                          <chr>                <chr>               
#>  1 https://orcid.org/0000-0002-0… 0000-0002-0897-2301  orcid.org           
#>  2 https://orcid.org/0000-0002-5… 0000-0002-5281-4466  orcid.org           
#>  3 https://orcid.org/0000-0001-6… 0000-0001-6172-5804  orcid.org           
#>  4 https://orcid.org/0000-0001-8… 0000-0001-8188-0078  orcid.org           
#>  5 https://orcid.org/0000-0002-4… 0000-0002-4968-6272  orcid.org           
#>  6 https://orcid.org/0000-0002-1… 0000-0002-1918-5792  orcid.org           
#>  7 https://orcid.org/0000-0001-9… 0000-0001-9667-1615  orcid.org           
#>  8 https://orcid.org/0000-0002-4… 0000-0002-4334-4001  orcid.org           
#>  9 https://orcid.org/0000-0003-0… 0000-0003-0945-6138  orcid.org           
#> 10 https://orcid.org/0000-0002-9… 0000-0002-9503-6836  orcid.org           
#> # … with 90 more rows
```
…
Function is vectorized, search for many DOIs


```r
dois <- c("10.1371/journal.pone.0025995","10.1371/journal.pone.0053712",
       "10.1371/journal.pone.0054608","10.1371/journal.pone.0055937")
res <- orcid_doi(dois = dois, fuzzy = TRUE)
res[[1]]
#> # A tibble: 100 x 3
#>    `orcid-identifier.uri`         `orcid-identifier.p… `orcid-identifier.h…
#>  * <chr>                          <chr>                <chr>               
#>  1 https://orcid.org/0000-0002-0… 0000-0002-0051-973X  orcid.org           
#>  2 https://orcid.org/0000-0001-6… 0000-0001-6577-5526  orcid.org           
#>  3 https://orcid.org/0000-0001-8… 0000-0001-8887-5095  orcid.org           
#>  4 https://orcid.org/0000-0002-2… 0000-0002-2355-6760  orcid.org           
#>  5 https://orcid.org/0000-0001-7… 0000-0001-7669-0325  orcid.org           
#>  6 https://orcid.org/0000-0003-2… 0000-0003-2574-4201  orcid.org           
#>  7 https://orcid.org/0000-0003-4… 0000-0003-4683-9648  orcid.org           
#>  8 https://orcid.org/0000-0002-9… 0000-0002-9358-3983  orcid.org           
#>  9 https://orcid.org/0000-0002-5… 0000-0002-5634-6145  orcid.org           
#> 10 https://orcid.org/0000-0001-7… 0000-0001-7563-4495  orcid.org           
#> # … with 90 more rows
```
…
