Interface to the Orcid.org API • rorcid
…
Search Orcid

Get a list of names and Orcid IDs matching a name query

orcid(query = "carl boettiger")
#> # A tibble: 100 x 3
#>    `orcid-identifier.uri`         `orcid-identifier.p… `orcid-identifier.h…
#>  * <chr>                          <chr>                <chr>               
#>  1 https://orcid.org/0000-0002-1… 0000-0002-1642-628X  orcid.org           
#>  2 https://orcid.org/0000-0002-3… 0000-0002-3554-5196  orcid.org           
#>  3 https://orcid.org/0000-0002-5… 0000-0002-5951-4503  orcid.org           
#>  4 https://orcid.org/0000-0002-7… 0000-0002-7462-1956  orcid.org           
#>  5 https://orcid.org/0000-0003-1… 0000-0003-1021-5374  orcid.org           
#>  6 https://orcid.org/0000-0001-5… 0000-0001-5676-2387  orcid.org           
#>  7 https://orcid.org/0000-0002-3… 0000-0002-3666-9991  orcid.org           
#>  8 https://orcid.org/0000-0002-8… 0000-0002-8885-5438  orcid.org           
#>  9 https://orcid.org/0000-0002-4… 0000-0002-4791-6222  orcid.org           
#> 10 https://orcid.org/0000-0001-8… 0000-0001-8692-6987  orcid.org           
#> # … with 90 more rows

You can string together many search terms

orcid(query = "johnson cardiology houston")
#> # A tibble: 100 x 3
#>    `orcid-identifier.uri`         `orcid-identifier.p… `orcid-identifier.h…
#>  * <chr>                          <chr>                <chr>               
#>  1 https://orcid.org/0000-0002-0… 0000-0002-0897-2301  orcid.org           
#>  2 https://orcid.org/0000-0002-4… 0000-0002-4968-6272  orcid.org           
#>  3 https://orcid.org/0000-0002-5… 0000-0002-5281-4466  orcid.org           
#>  4 https://orcid.org/0000-0002-0… 0000-0002-0682-9982  orcid.org           
#>  5 https://orcid.org/0000-0001-6… 0000-0001-6172-5804  orcid.org           
#>  6 https://orcid.org/0000-0001-8… 0000-0001-8188-0078  orcid.org           
#>  7 https://orcid.org/0000-0002-1… 0000-0002-1918-5792  orcid.org           
#>  8 https://orcid.org/0000-0001-9… 0000-0001-9667-1615  orcid.org           
#>  9 https://orcid.org/0000-0002-4… 0000-0002-4334-4001  orcid.org           
#> 10 https://orcid.org/0000-0003-0… 0000-0003-0945-6138  orcid.org           
#> # … with 90 more rows

And use boolean operators

orcid("johnson AND(caltech OR 'California Institute of Technology')")
#> # A tibble: 99 x 3
#>    `orcid-identifier.uri`         `orcid-identifier.p… `orcid-identifier.h…
#>  * <chr>                          <chr>                <chr>               
#>  1 https://orcid.org/0000-0002-0… 0000-0002-0026-2516  orcid.org           
#>  2 https://orcid.org/0000-0002-7… 0000-0002-7042-5739  orcid.org           
#>  3 https://orcid.org/0000-0002-7… 0000-0002-7074-000X  orcid.org           
#>  4 https://orcid.org/0000-0002-4… 0000-0002-4587-6722  orcid.org           
#>  5 https://orcid.org/0000-0002-9… 0000-0002-9799-2610  orcid.org           
#>  6 https://orcid.org/0000-0003-0… 0000-0003-0533-6833  orcid.org           
#>  7 https://orcid.org/0000-0003-4… 0000-0003-4021-2473  orcid.org           
#>  8 https://orcid.org/0000-0002-0… 0000-0002-0473-3899  orcid.org           
#>  9 https://orcid.org/0000-0002-3… 0000-0002-3909-2294  orcid.org           
#> 10 https://orcid.org/0000-0001-6… 0000-0001-6015-8617  orcid.org           
#> # … with 89 more rows
…
